%YAML 1.1
%TAG !u! tag:unity3d.com,2011:
--- !u!1045 &1
EditorBuildSettings:
  m_ObjectHideFlags: 0
  serializedVersion: 2
  m_Scenes:
  - enabled: 1
    path: Assets/Scenes/MenuScene.unity
    guid: cff5d6529b85b02439f063cfb0cde45a
  - enabled: 1
    path: Assets/Scenes/StageSelectScene.unity
    guid: 889ebefff2cb5754cbf91d1b9dc96da1
  - enabled: 1
    path: Assets/Scenes/Stage 1-1.unity
    guid: 99c9720ab356a0642a771bea13969a05
  - enabled: 1
    path: Assets/Scenes/Stage 1-2.unity
    guid: ad6e74d0d362d634295a33a2f8658b2e
  m_configObjects: {}
